<?xml version="1.0" encoding="UTF-8" standalone="no"?>
<!-- Created with Inkscape (http://www.inkscape.org/) -->

<svg
   xmlns:dc="http://purl.org/dc/elements/1.1/"
   xmlns:cc="http://creativecommons.org/ns#"
   xmlns:rdf="http://www.w3.org/1999/02/22-rdf-syntax-ns#"
   xmlns:svg="http://www.w3.org/2000/svg"
   xmlns="http://www.w3.org/2000/svg"
   xmlns:sodipodi="http://sodipodi.sourceforge.net/DTD/sodipodi-0.dtd"
   xmlns:inkscape="http://www.inkscape.org/namespaces/inkscape"
   width="250"
   height="113.051"
   viewBox="0 0 66.145835 29.91141"
   version="1.1"
   id="svg3838"
   inkscape:version="0.92.0 unknown"
   sodipodi:docname="logo.svg">
  <defs
     id="defs3832">
    <clipPath
       clipPathUnits="userSpaceOnUse"
       id="clipPath92">
      <path
         d="M 374.173,274.858 H 756.777 V 447.874 H 374.173 Z"
         id="path90"
         inkscape:connector-curvature="0" />
    </clipPath>
    <clipPath
       clipPathUnits="userSpaceOnUse"
       id="clipPath76">
      <path
         d="m 374.173,266.457 h 396.85 v 181.418 h -396.85 z"
         id="path74"
         inkscape:connector-curvature="0" />
    </clipPath>
    <clipPath
       clipPathUnits="userSpaceOnUse"
       id="clipPath108">
      <path
         d="m 374.173,266.457 h 396.85 v 181.418 h -396.85 z"
         id="path106"
         inkscape:connector-curvature="0" />
    </clipPath>
  </defs>
  <sodipodi:namedview
     id="base"
     pagecolor="#ffffff"
     bordercolor="#666666"
     borderopacity="1.0"
     inkscape:pageopacity="0.0"
     inkscape:pageshadow="2"
     inkscape:zoom="0.7"
     inkscape:cx="-0.30923611"
     inkscape:cy="-9.789443"
     inkscape:document-units="mm"
     inkscape:current-layer="layer1"
     showgrid="false"
     inkscape:window-width="1920"
     inkscape:window-height="1054"
     inkscape:window-x="0"
     inkscape:window-y="0"
     inkscape:window-maximized="1"
     units="px" />
  <metadata
     id="metadata3835">
    <rdf:RDF>
      <cc:Work
         rdf:about="">
        <dc:format>image/svg+xml</dc:format>
        <dc:type
           rdf:resource="http://purl.org/dc/dcmitype/StillImage" />
        <dc:title></dc:title>
      </cc:Work>
    </rdf:RDF>
  </metadata>
  <g
     inkscape:label="Layer 1"
     inkscape:groupmode="layer"
     id="layer1"
     transform="translate(0,-267.08859)">
    <g
       id="g3922"
       transform="matrix(0.49006131,0,0,0.49006131,-21.38527,216.14564)">
      <g
         id="g70"
         transform="matrix(0.35277777,0,0,-0.35277777,-88.361968,261.95223)">
        <g
           clip-path="url(#clipPath76)"
           id="g72">
          <g
             transform="translate(596.1642,311.0373)"
             id="g78">
            <path
               inkscape:connector-curvature="0"
               id="path80"
               style="fill:#003882;fill-opacity:1;fill-rule:nonzero;stroke:none"
               d="m 0,0 c -2.303,5.507 -6.659,15.049 -6.659,15.049 0,0 -0.832,3.585 -5.058,3.585 h -7.493 c 0,0 -4.034,0.767 -7.555,-3.585 -3.523,-4.357 -12.04,-15.369 -12.04,-15.369 0,0 -2.881,-2.818 -4.289,-10.629 -1.409,-7.813 -4.417,-24.717 -4.417,-24.717 h 9.603 l 2.489,13.766 h 24.581 c -1.235,-6.728 -2.545,-13.766 -2.545,-13.766 h 9.669 l 4.546,26.893 c 0,0 1.473,3.265 -0.832,8.773 m -33.856,-13.255 0.047,0.256 c 0,0 1.024,6.147 3.265,8.901 2.24,2.752 10.246,13.191 10.246,13.191 0,0 0.256,0.64 1.28,0.64 h 3.266 c 0,0 0.64,-0.256 0.96,-1.088 0.321,-0.835 5.444,-12.616 5.444,-12.616 0,0 1.087,-3.329 0.641,-6.146 -0.08,-0.5 -0.28,-1.63 -0.551,-3.138 z" />
          </g>
          <g
             transform="translate(608.907,274.8585)"
             id="g82">
            <path
               inkscape:connector-curvature="0"
               id="path84"
               style="fill:#003882;fill-opacity:1;fill-rule:nonzero;stroke:none"
               d="m 0,0 h 14.342 c 0,0 3.138,0.192 6.083,1.728 2.947,1.538 6.02,3.266 6.02,3.266 L 24.269,11.783 16.713,8.9 c 0,0 -1.28,-0.513 -2.625,-0.576 -1.345,-0.065 -9.862,0 -9.862,0 0,0 -0.706,-10e-4 -1.793,0.896 -1.088,0.897 -1.793,1.986 -1.793,1.986 0,0 -0.448,1.345 -0.128,2.688 0.32,1.344 2.753,16.073 2.753,16.073 0,0 0.77,1.538 1.345,2.05 0.578,0.512 2.305,1.921 2.305,1.921 0,0 0.896,0.575 2.177,0.575 h 9.158 c 0,0 1.28,-0.191 2.37,-0.575 1.089,-0.385 6.209,-2.947 6.209,-2.947 l 4.931,7.109 -4.675,3.264 c 0,0 -2.687,1.794 -5.954,1.794 H 8.581 c 0,0 -3.715,-0.064 -5.956,-1.794 -2.241,-1.728 -5.184,-4.354 -5.184,-4.354 0,0 -2.435,-2.623 -3.203,-6.979 -0.77,-4.353 -3.075,-17.8 -3.075,-17.8 0,0 -0.959,-3.587 0.898,-6.212 C -6.083,3.394 -4.356,1.664 -4.356,1.664 -4.356,1.664 -2.497,0 0,0" />
          </g>
        </g>
      </g>
      <g
         id="g86"
         transform="matrix(0.35277777,0,0,-0.35277777,-88.361968,261.95223)">
        <g
           clip-path="url(#clipPath92)"
           id="g88">
          <g
             transform="translate(639.5796,275.371)"
             id="g94">
            <path
               inkscape:connector-curvature="0"
               id="path96"
               style="fill:#003882;fill-opacity:1;fill-rule:nonzero;stroke:none"
               d="m 0,0 h 9.093 l 6.019,32.848 c 0,0 2.369,1.281 2.819,1.345 0.446,0.064 13.061,0 13.061,0 0,0 1.345,-0.256 2.049,-1.281 0.705,-1.024 1.152,-1.472 1.152,-1.472 0,0 0.257,-1.025 0,-2.497 C 33.939,27.47 29.262,0 29.262,0 h 9.159 l 5.123,29.711 c 0,0 0.512,1.471 1.472,2.177 0.96,0.704 2.303,1.92 2.303,1.92 0,0 0.642,0.442 2.115,0.414 1.473,-0.029 10.822,0 10.822,0 0,0 0.959,-0.158 1.537,-0.798 0.575,-0.64 1.472,-1.984 1.472,-1.984 0,0 0.577,-0.511 0.257,-2.177 C 63.201,27.596 58.462,0 58.462,0 h 8.901 l 5.57,31.248 c 0,0 0.577,3.97 -1.536,6.467 -2.111,2.497 -3.521,4.866 -8.644,4.93 -5.122,0.064 -14.534,0 -14.534,0 0,0 -4.227,0.256 -7.493,-3.457 0,0 -1.794,3.486 -6.147,3.486 -4.355,0 -16.458,-0.029 -17.482,-0.029 -1.025,0 -6.852,-2.047 -8.004,-2.625 C 7.94,39.444 6.723,37.586 6.339,35.41 5.956,33.232 0,0 0,0" />
          </g>
          <g
             transform="translate(755.4148,312.3822)"
             id="g98">
            <path
               inkscape:connector-curvature="0"
               id="path100"
               style="fill:#003882;fill-opacity:1;fill-rule:nonzero;stroke:none"
               d="m 0,0 c -1.987,2.496 -2.883,3.331 -2.883,3.331 0,0 -1.152,2.331 -5.25,2.331 h -15.432 c 0,0 -2.112,0.421 -4.804,-1.307 -2.688,-1.731 -5.635,-4.61 -6.594,-5.636 -0.96,-1.026 -1.856,-3.137 -2.625,-7.3 -0.768,-4.161 -3.073,-17.352 -3.073,-17.352 0,0 -0.514,-3.332 1.473,-5.892 1.984,-2.562 2.944,-3.715 3.521,-4.098 0.577,-0.384 1.345,-1.537 5.315,-1.537 h 14.599 c 0,0 2.562,0.129 5.124,1.408 2.558,1.283 6.915,3.522 6.915,3.522 l -2.369,6.853 -7.748,-2.947 c 0,0 -1.601,-0.511 -3.202,-0.511 h -10.312 c 0,0 -1.599,0.32 -2.239,1.024 -0.64,0.704 -1.408,1.794 -1.408,1.794 0,0 -0.511,1.152 -0.385,2.112 0.13,0.96 0.832,4.418 0.832,4.418 h 25.357 c 0,0 4.098,0.128 4.804,3.844 0.704,3.713 1.599,10.308 1.599,10.308 0,0 0.77,3.139 -1.215,5.635 M -7.941,-7.557 -8.772,-12.23 H -29.2 c 0,0 0.768,4.931 0.896,5.633 0.128,0.706 2.049,2.242 2.882,3.075 0.833,0.833 2.498,0.833 2.498,0.833 h 11.142 c 1.344,0 1.792,-0.642 2.943,-1.858 1.154,-1.215 0.898,-3.01 0.898,-3.01" />
          </g>
        </g>
      </g>
      <g
         id="g102"
         transform="matrix(0.35277777,0,0,-0.35277777,-88.361968,261.95223)">
        <g
           clip-path="url(#clipPath108)"
           id="g104">
          <g
             transform="translate(710.6697,380.821)"
             id="g110">
            <path
               inkscape:connector-curvature="0"
               id="path112"
               style="fill:#00a0d9;fill-opacity:1;fill-rule:nonzero;stroke:none"
               d="m 0,0 c 0,0 -31.595,26.822 -44.097,47.733 0,0 -5.228,-9.092 -12.047,-14.775 0,0 11.495,-14.225 24.457,-21.351 0,0 24.641,-8.879 31.687,-11.607" />
          </g>
          <g
             transform="translate(624.5242,447.8741)"
             id="g114">
            <path
               inkscape:connector-curvature="0"
               id="path116"
               style="fill:#ffdd00;fill-opacity:1;fill-rule:nonzero;stroke:none"
               d="m 0,0 c 0,0 26.063,-41.596 51.558,-56.369 l -196.576,-75.465 c 0,0 102.056,74.783 145.018,131.834" />
          </g>
          <g
             transform="translate(568.8348,393.0962)"
             id="g118">
            <path
               inkscape:connector-curvature="0"
               id="path120"
               style="fill:#7eb01e;fill-opacity:1;fill-rule:nonzero;stroke:none"
               d="m 0,0 c 0,0 -16.498,16.592 -20.184,21.82 0,0 -38.687,-54.325 -125.289,-105.466 l 90.466,36.14 c 0,0 30.761,23.942 55.007,47.506" />
          </g>
          <g
             transform="translate(492.0109,361.1131)"
             id="g122">
            <path
               inkscape:connector-curvature="0"
               id="path124"
               style="fill:#db001b;fill-opacity:1;fill-rule:nonzero;stroke:none"
               d="m 0,0 c 0,0 -16.576,16.754 -21.918,24.482 0,0 -45.004,-48.643 -95.92,-76.145 l 105.013,41.141 c 0,0 7.505,5.542 12.825,10.522" />
          </g>
        </g>
      </g>
    </g>
  </g>
</svg>
